01/01/2011,3.47074242952705
01/04/2011,4.08693822191573
01/07/2011,1.64738220193758
01/10/2011,2.52587260469553
01/01/2012,3.19854313710973
01/04/2012,4.37112063168294
01/07/2012,1.84800854192528
01/10/2012,2.4939721295239
01/01/2013,3.32448600790281
01/04/2013,4.71055819540309
01/10/2013,2.65480105261257
01/01/2014,3.79991975241135
01/04/2014,4.357718129584
01/07/2014,1.48738751533126
01/10/2014,2.48643640023158
