01/07/2014,-0.183277817379388
01/10/2014,-0.082906408275258
01/01/2015,0.060292697909041
01/04/2015,0.195002247265239
01/07/2015,-0.152118708649266
01/10/2015,-0.134303929040533
01/01/2016,-0.00607057628218
