01/01/2013,-0.016936637615542
01/04/2013,0.680734514381894
01/07/2013,0.600853139976977
01/04/2015,1.94756717816026
01/07/2015,0.564827817990732
01/10/2015,1.24085019265452
01/01/2016,1.61002371547189
