01/01/2011,1.97681774946036
01/04/2011,3.00744131560039
01/07/2011,1.99325327547875
01/10/2011,2.32813503104323
01/01/2012,3.60464856229349
01/04/2012,3.71725067781763
01/07/2012,0.967643938879575
01/10/2012,1.42658458920637
01/01/2013,1.60814064203131
01/04/2013,2.32801886338931
01/07/2013,0.706776586090557
01/10/2013,1.25791335146265
01/01/2014,1.96513986578644
