01/04/2011,1.92921218020464
01/07/2011,0.783192298737269
01/10/2011,1.47796550178739
01/01/2012,3.42134868588344
01/04/2012,2.55661121542726
01/07/2012,0.535359684776175
01/10/2012,1.35853483058952
01/01/2013,1.5867546690643
01/04/2013,2.31319256199281
01/07/2013,0.309718126247307
01/10/2013,0.983359182447188
01/01/2014,1.44987003640388
01/04/2014,2.01466955366673
01/01/2015,1.78379332919104
