01/04/2011,7.95772184793844
01/07/2011,4.1048266188686
01/10/2011,3.96040472022805
01/01/2012,5.92927577450232
01/04/2012,6.69543218429062
01/07/2012,2.21205912008564
01/10/2012,3.12102091778939
01/01/2013,4.03638558062451
01/04/2013,5.71617873615832
01/10/2013,4.21287790791464
01/01/2014,5.72658192120739
01/04/2014,5.4773297288867
01/07/2014,3.11208969635438
01/10/2014,4.84769689043046
01/01/2015,7.69792224203547
01/04/2015,6.28145509588866
