01/01/2012,1.78103326323397
01/04/2012,3.11189964373743
01/07/2012,1.05382905453963
01/10/2012,1.36478929753783
01/01/2013,2.14043902685756
01/04/2013,3.54144954216727
01/07/2013,1.72505689093833
01/10/2013,2.4175883191395
01/01/2014,3.11598760559351
01/04/2014,3.50954794477782
01/07/2014,2.8971938806745
01/10/2014,2.62094771640959
