01/01/2011,0.366414667902196
01/04/2011,0.286062775183753
01/07/2011,0.028577123217092
01/10/2011,0.052455231015502
01/01/2012,0.104479669478445
01/04/2012,0.099164591354156
01/07/2012,0.08000432061685
01/10/2012,0.181908164960186
01/01/2013,0.247934658722129
01/04/2013,0.201026637180371
01/07/2013,0.065794954708762
01/10/2013,0.128775600905799
01/01/2014,0.267482770413053
01/04/2014,0.339554993592083
01/07/2014,0.149416895822947
01/10/2014,0.405860269829276
