01/01/2011,2.59120344333336
01/04/2011,2.30932782255353
01/07/2011,0.739260056260501
01/01/2012,1.75930445205461
01/04/2012,2.9671258981748
01/07/2012,0.654325834544147
01/10/2012,0.637611619360689
01/01/2013,1.10747929074606
