01/10/2011,0.261043037701062
01/01/2012,1.80537897837621
01/07/2012,1.12633603714259
01/10/2012,1.88411683089221
01/01/2013,3.19997347032057
01/04/2013,2.3880473892372
01/07/2013,-1.14988967038781
01/10/2013,0.33179624827359
01/01/2014,1.13547773141717
