01/04/2011,5.13236948408026
01/07/2011,2.95265530096959
01/10/2011,2.10153397987166
01/01/2012,1.56097433281928
01/04/2012,2.01510108504841
01/07/2012,1.53429517214304
01/10/2012,1.87334846810298
01/01/2013,1.96198037688916
01/04/2013,2.67118672029032
01/07/2013,1.48761204209485
01/10/2013,1.56712345472865
01/01/2014,1.59356444769467
01/04/2014,2.72807007275941
01/10/2014,1.5514460728272
