01/01/2011,1.57276102227306
01/04/2011,1.66871934172563
01/07/2011,0.991740779472603
01/10/2011,1.19420874583589
01/01/2012,1.50251380452205
01/04/2012,1.70935831193855
01/07/2012,0.756021307586381
01/10/2012,0.971042364127472
01/01/2013,1.31687139644519
01/04/2013,1.7588006640122
01/07/2013,0.641376600781484
01/10/2013,0.920204845869821
01/01/2014,1.32317624123177
01/04/2014,1.70986614784292
