01/04/2011,2.46572244646537
01/07/2011,0.605306194397646
01/10/2011,1.03288547579116
01/01/2012,1.50164766271394
01/04/2012,1.97712841476727
01/07/2012,0.580163005198985
01/10/2012,1.0880802967794
01/01/2013,1.51264786660321
01/04/2013,2.02511270439856
01/07/2013,0.494132003853699
01/10/2013,0.922656957274568
01/01/2014,1.35439602024137
01/10/2014,0.274453190853371
