01/04/2011,5.48330951404413
01/07/2011,4.75305244276591
01/10/2011,6.34741196606655
01/01/2012,4.47596485626029
01/04/2012,5.24593343680102
01/07/2012,3.32479511447217
01/10/2012,5.2649250472713
01/01/2013,6.5937554249602
01/04/2013,7.05240996002485
01/07/2013,5.17997268844974
01/10/2013,6.44693169279527
01/01/2014,7.37974389655116
01/04/2014,8.06236900421549
01/07/2014,7.35806801097568
01/10/2014,5.81965304179705
01/01/2015,6.39932369908959
