01/07/2012,1.544062486604
01/10/2012,3.09958848182806
01/01/2013,4.42714251537128
01/04/2013,5.92594985084646
01/10/2013,1.9612539522901
01/01/2014,2.8492329710356
01/04/2014,3.71996358313765
01/07/2014,1.60759119742556
01/10/2014,2.30400622612775
01/01/2015,2.49645748250886
01/04/2015,3.74892239808452
01/07/2015,1.11337177853236
