01/01/2011,0.50092760805996
01/04/2011,1.06162292974428
01/07/2011,0.667278766027855
01/10/2011,0.802927059248664
01/01/2012,0.980880037689448
01/04/2012,1.16616690435406
01/07/2012,0.518682616327592
01/10/2012,0.619853209149231
01/01/2013,1.51762939136883
01/04/2013,1.70098492240254
01/07/2013,0.176082997205562
