01/04/2011,2.6351973003517
01/07/2011,0.850512380074247
01/10/2011,1.27605348302438
01/01/2012,1.66387666195994
01/04/2012,1.87249576009909
01/07/2012,0.614158672762173
01/10/2012,0.887162934565163
01/01/2013,1.22039127586831
01/04/2013,2.0379034831966
01/07/2013,0.638251464483863
01/10/2013,0.960299386115281
01/01/2014,1.24157848468733
