01/10/2011,1.8865208396863
01/01/2012,2.90555711555391
01/07/2013,1.42511616017813
01/01/2014,2.99756842371618
01/04/2014,4.0080128930589
01/07/2014,1.53020079379442
01/10/2014,2.03332357485247
01/01/2015,3.15885002835628
01/04/2015,3.65189884326078
01/07/2015,1.80380877798448
