01/07/2012,1.82740603412737
01/10/2012,1.6767228584315
01/01/2013,1.11232727904021
01/04/2013,1.80041792069248
01/07/2013,0.796228560544271
01/10/2013,0.95517123291324
01/01/2014,0.516508610200525
01/04/2014,0.700148142618901
01/07/2014,0.078880275116994
01/10/2014,-0.091877209813282
01/01/2015,-0.0700788021957
01/04/2015,0.184224224291864
01/07/2015,-0.476772234816738
