01/04/2011,1.97932769783205
01/07/2011,0.723241917240586
01/01/2012,1.633273516731
01/04/2012,7.08646120323998
01/07/2012,3.99924261150825
01/10/2012,1.23473891483246
01/01/2013,4.96071973747916
01/04/2013,2.62340408627042
01/07/2013,6.71154898939749
01/10/2013,1.43457468945446
01/01/2014,1.69419615465749
01/04/2014,5.95555691761475
01/07/2014,0.826432439254268
01/10/2014,1.12350383243593
01/01/2015,1.43694996230484
01/04/2015,1.52305455617718
01/07/2015,0.600662315423238
01/10/2015,0.990300371958056
01/01/2016,1.0764058572445
