01/04/2011,5.36373101914687
01/07/2011,2.06172789103099
01/10/2011,3.17646345682029
01/01/2012,4.29304831085524
01/04/2012,5.16530472971916
01/07/2012,2.05281306811622
01/10/2012,2.89027018627268
01/01/2013,3.71056060443703
01/04/2013,4.6499894995313
01/07/2013,2.20195887592331
01/10/2013,3.04568472298013
01/01/2014,3.78855411773614
01/04/2014,4.70751336527146
01/07/2014,2.7055145754803
01/10/2014,3.06645934615602
