01/07/2012,1.3716417148033
01/10/2012,2.64451302075097
01/01/2013,4.00716893222844
01/04/2013,5.24283250895632
01/07/2013,2.18495763685249
01/10/2013,3.17148813615336
01/01/2014,4.06838013107203
01/04/2014,6.9433013096753
01/07/2014,3.45751476573827
01/10/2014,5.2214125367248
01/01/2015,6.29221374881488
01/04/2015,7.47976690860502
01/07/2015,4.21329193896957
01/10/2015,5.72647781872776
01/01/2016,6.93529201102105
