01/01/2011,0.559397534494884
01/04/2011,1.27916470368185
01/07/2011,0.977270216801328
01/10/2011,1.23328998026606
01/01/2012,1.39825524775265
01/04/2012,1.67266896515759
01/07/2012,0.854594409577328
01/10/2012,1.11826180869394
01/01/2013,1.37863396908721
01/04/2013,1.5228003906596
01/07/2013,1.02020450619051
01/10/2013,0.889573498068714
01/01/2014,0.79041492010187
01/04/2014,1.44235432331976
01/07/2014,0.85070639860572
01/10/2014,0.890253038608214
01/01/2015,1.04550609586783
01/04/2015,2.84171552166754
01/07/2015,2.84171552166754
01/10/2015,2.29259684308921
01/01/2016,2.29259684308921
