01/04/2011,2.81458112627748
01/07/2011,1.74159036161347
01/10/2011,3.81162580957008
01/01/2012,3.58012156301057
01/04/2012,4.12749026642076
01/07/2012,1.70818496907779
01/10/2012,2.06447351774722
01/01/2013,2.08099783007046
01/07/2013,1.33866908957879
01/10/2013,1.90693586621894
01/01/2014,2.15337740740464
01/07/2014,0.82754228465495
01/10/2014,1.30651668160792
01/01/2015,2.93216117218701
