01/07/2011,1.43702973567152
01/10/2011,2.30934265470367
01/01/2012,3.43156706218307
01/04/2012,4.89502282269132
01/07/2012,1.44656477100046
01/10/2012,2.16728574424122
01/01/2013,3.74650985990781
01/04/2013,4.64031343001007
01/07/2013,1.54530472128156
01/10/2013,2.13662758009081
01/01/2014,3.4819068952702
01/04/2014,4.99837895701943
01/07/2014,1.4230195457645
01/10/2014,2.17840811694947
01/01/2015,3.4364038690616
