01/10/2013,0.998981766604274
01/01/2014,0.936901061492817
01/04/2014,2.19297177184295
01/07/2014,1.2982312306505
01/10/2014,1.51915564382348
01/01/2015,1.72385869395716
01/04/2015,2.10110587164011
01/10/2015,0.987760689769038
01/01/2016,1.13147263777781
