01/04/2012,1.03198401902586
01/07/2012,0.464544901194653
01/10/2012,0.662161661217747
01/01/2013,1.43285480279928
01/04/2013,2.16136272131961
01/07/2013,1.34858020625846
01/10/2013,1.62239861665552
01/01/2014,2.1086967533249
01/01/2016,1.45333470974894
