01/04/2012,3.16765270789004
01/07/2012,1.31333485237873
01/10/2012,1.94674311512223
01/01/2013,2.93081056892881
01/04/2013,3.25178207165285
01/07/2013,1.26533449052018
01/10/2013,2.00476606571618
01/01/2014,2.56709211726137
01/04/2014,2.98752771667689
01/07/2014,1.16614177885531
01/10/2014,1.92897370155527
01/01/2015,2.41687705791468
01/04/2015,2.82810987170985
01/07/2015,1.3466298991436
01/10/2015,2.00467091036204
01/01/2016,2.46986113795957
