01/07/2011,0.909621044712854
01/10/2011,1.52906402613232
01/01/2012,2.35711500207417
01/04/2012,3.0641488117717
01/07/2012,0.613373271454768
01/10/2012,1.16489477147299
01/01/2013,1.53246995505994
01/04/2013,4.80911059459982
01/07/2013,1.59065074096021
01/10/2013,2.56549501720776
01/01/2014,2.93943353512748
01/04/2014,4.23350624356837
01/07/2014,1.05306701512965
01/10/2014,2.36715718576946
01/01/2015,3.67214203714128
01/10/2015,1.8767832504088
