01/10/2012,1.01506668222454
01/01/2013,1.22797269494915
01/04/2013,1.83377199860814
01/07/2013,0.614544113849015
01/10/2013,1.0163059967471
01/01/2014,1.48426425043899
01/04/2014,2.43122827610978
01/07/2014,0.601466619336173
01/10/2014,1.17491895792613
01/01/2015,1.72902290279206
