01/04/2011,3.71631083527582
01/10/2011,2.7340127212264
01/07/2012,1.7008001249912
01/01/2013,3.61335258294809
01/04/2013,4.71052515489567
01/07/2013,1.8090059799858
01/10/2013,3.51820939511792
01/01/2014,4.03342766972373
01/04/2014,4.49787626970536
01/07/2014,1.81516894062654
01/10/2014,3.69274912250864
01/01/2015,5.01109179587007
