01/07/2012,-0.262355662756591
01/10/2012,0.055650568215638
01/01/2013,0.418535546979356
01/04/2013,0.403269404674392
01/07/2013,-0.070426709274099
01/10/2013,0.396775112605233
01/01/2014,0.852222628164118
01/04/2014,0.42617763573446
01/07/2014,-1.28221831051705
01/10/2014,-1.29859003655431
01/01/2015,-1.44618061464626
01/04/2015,-1.83397419870108
01/07/2015,-2.79999664011393
01/10/2015,-2.73687157875105
