01/01/2014,0.130271894990103
01/04/2014,0.346763140983921
01/07/2014,-0.061176405536048
01/10/2014,0.069396949990779
01/01/2015,0.231432383190549
01/07/2015,-0.143900484973468
01/10/2015,-0.163558130360741
