01/07/2011,1.44894707691558
01/10/2011,1.92092289256709
01/01/2012,4.02356238638794
01/04/2012,3.15833158852281
01/07/2012,1.47822454427511
01/10/2012,2.10697840052233
01/01/2013,3.65948645745968
01/04/2013,3.25817675425914
01/07/2013,1.23492301772052
01/10/2013,2.13548823558512
01/01/2014,3.24631019557912
01/04/2014,4.13739298547691
01/07/2014,1.44341954011417
01/10/2014,2.26478198104446
01/01/2015,3.41572269712996
01/04/2015,3.09788413172178
01/07/2015,1.53395830900694
01/10/2015,2.23131407507179
01/01/2016,2.41729758275146
