01/04/2011,3.02534211386228
01/07/2011,-0.714157968720318
01/10/2011,0.507770705093186
01/01/2012,1.91883718067147
01/04/2012,4.37341984066023
01/07/2012,3.77590465188056
01/10/2012,1.99891083851635
01/01/2013,2.31267992045656
01/04/2013,3.4834340507362
01/07/2013,0.614326881574973
01/10/2013,2.28368248225618
01/01/2014,3.06212225988475
01/04/2014,3.90655870764011
01/07/2014,0.819269345379226
