01/10/2013,2.24014273718582
01/01/2014,3.04316522726231
01/04/2014,3.736101139915
01/07/2014,1.48921636534147
01/10/2014,2.15801767711883
01/01/2015,2.72543238815955
01/04/2015,2.75568730676603
01/07/2015,0.960642457378558
01/10/2015,1.90068207710869
01/01/2016,2.91010097663779
