01/04/2011,1.06203606051591
01/07/2011,0.542142854102606
01/10/2011,0.717512398101816
01/01/2012,0.981761034483071
01/04/2012,1.1000181234341
01/07/2012,0.137888566330945
01/10/2012,0.455401284876166
01/01/2013,0.803621084186362
01/04/2013,-0.442710618259601
01/07/2013,-1.90018676123112
01/10/2013,-1.53396668321725
01/01/2014,-1.30060858817641
01/04/2014,-0.843225168566205
01/07/2014,-2.18966580768912
01/10/2014,-1.91794712255982
01/01/2015,-1.32335174948853
01/04/2015,-0.865511366069452
01/07/2015,-2.51738413546737
