01/10/2011,0.025535556737273
01/01/2012,0.024354817547499
01/04/2012,0.038909034422781
01/07/2012,0.044055633547712
01/10/2012,0.037285936153044
01/01/2013,0.040005905621339
01/04/2013,0.069882945885847
01/07/2013,0.042579180691171
01/10/2013,0.02844987873805
01/01/2014,0.029487705809981
01/04/2014,0.0379670281143
01/07/2014,0.033287181727568
01/10/2014,0.06048724932683
01/01/2015,0.094004394642654
01/04/2015,0.067829391914909
01/07/2015,0.069853638493716
01/10/2015,0.115860683323567
01/01/2016,0.225832925099131
