01/01/2012,2.57143412101762
01/07/2012,1.48041960685442
01/10/2012,2.79264891199008
01/01/2013,3.68949694368142
01/04/2013,4.41938723746849
01/07/2013,1.07544619566064
01/10/2013,1.63446758119019
01/01/2014,2.84284286593476
01/04/2014,3.60987876303737
01/07/2014,1.33091578290744
01/10/2014,1.81364476444369
01/01/2015,2.70826047240331
01/04/2015,4.5555163503926
01/07/2015,1.45840980159622
01/10/2015,1.97452989126743
01/01/2016,2.83356924894828
