01/01/2011,1.5513594152038
01/04/2011,1.71058912470451
01/07/2011,1.31658175120363
01/10/2011,1.35571766033546
01/01/2012,1.37212285749463
01/04/2012,1.25701855084129
01/10/2012,0.824996680641569
01/01/2013,0.781303874219516
01/04/2013,0.784009653085318
01/07/2013,0.540894504348133
01/10/2013,0.714839138704412
01/01/2014,0.890372867586771
01/04/2014,0.914659813373243
01/07/2014,0.661705785039574
01/10/2014,0.64683641240227
01/01/2015,0.398295277876802
01/10/2015,0.407454424901778
01/01/2016,0.510426456521562
