01/01/2011,-0.254632147755495
01/04/2011,0.053497929103181
01/07/2011,0.053497929103181
01/10/2011,0.053497929103181
01/01/2012,0.053497929103181
01/04/2012,-0.171614697989239
01/07/2012,-0.171614697989239
01/10/2012,-0.171614697989239
01/01/2013,-0.171614697989239
01/04/2013,-0.171614697989239
01/07/2013,-0.171614697989239
