01/01/2013,-1.7167897313106
01/04/2013,-0.648320640199019
01/07/2013,-0.215747584502265
01/10/2013,-0.110077538415031
01/01/2014,-0.071526737848945
01/04/2014,0.095300174266087
01/07/2014,-0.221483517942534
01/10/2014,0.466640258177681
01/01/2015,0.63410620970836
01/04/2015,0.869363143196301
01/07/2015,0.575819688958416
01/10/2015,0.569482616653017
01/01/2016,0.684652961763784
