01/04/2011,0.427239395977573
01/07/2011,0.313430598398536
01/10/2011,0.28872408635893
01/01/2012,0.248875039750499
01/04/2012,0.333373254079841
01/07/2012,0.270047616268606
01/10/2012,0.238092427680617
01/01/2013,0.238882995576892
01/04/2013,0.312588632271813
01/07/2013,0.25559249962164
01/10/2013,0.219974208815918
01/01/2014,0.21779012880417
01/04/2014,0.201937260130357
01/07/2014,0.285331890010491
