01/01/2011,0.922329148695476
01/04/2011,1.88414487900457
01/07/2011,0.915434198989066
01/10/2011,0.861177876288413
01/01/2012,0.585892641756158
01/04/2012,1.17647206929376
01/07/2012,0.592499880462423
01/10/2012,0.62693015011722
01/01/2013,0.847139308394143
01/04/2013,0.902063389140925
01/07/2013,0.446907471260687
01/10/2013,0.690988094565785
01/01/2014,0.888084328653706
01/04/2014,0.930873435615316
01/07/2014,0.468009900389108
01/10/2014,0.601229046594187
01/01/2015,0.999271808612597
01/07/2015,0.905132249508548
01/10/2015,0.982061481921206
01/01/2016,1.03289349691318
