01/10/2013,1.28244912379912
01/01/2014,1.78571487518445
01/04/2014,2.25572558551735
01/07/2014,0.649995838405953
01/10/2014,1.12562072853758
01/04/2015,2.12477633237281
01/07/2015,0.533550705698922
01/10/2015,0.956624573498667
01/01/2016,1.35083266163303
