01/07/2012,5.62653500659452
01/10/2012,6.8594834948384
01/01/2013,6.0325168267253
01/04/2013,6.31017087489122
01/07/2013,4.67028143600627
01/10/2013,5.86174620790009
01/01/2014,5.60218850737743
01/04/2014,7.23643588588462
01/07/2014,5.49413421696826
01/10/2014,5.34448975257383
01/01/2015,5.51182706093351
01/04/2015,5.61565327880637
01/07/2015,5.88332458769887
