01/01/2011,9.34902205660906
01/04/2011,7.46113488117718
01/07/2011,7.1280319142931
01/10/2011,9.80444020269485
01/01/2012,11.9452416942586
01/04/2012,1.53240562165427
01/04/2014,7.61162296507931
01/07/2014,5.52593763182536
01/10/2014,5.84385754943715
