01/04/2011,1.85780576919963
01/07/2011,1.37270256827696
01/10/2011,1.78332207342138
01/01/2012,1.87099078144382
01/07/2012,0.877800107097967
01/10/2012,1.02779982961223
01/01/2013,1.4586590586065
01/07/2013,0.579354473809588
01/10/2013,0.89394554290089
01/01/2014,1.02063465064442
01/04/2014,1.15431101494713
01/07/2014,0.703952656317255
