01/04/2011,0.96697277000403
01/01/2012,1.29907502621337
01/04/2012,1.62597270622193
01/07/2012,0.409177627056121
01/10/2012,0.71279371779899
01/01/2013,1.11711406411265
01/07/2013,0.428133100637066
01/10/2013,0.933747560285621
01/01/2014,1.18509383036575
