01/10/2012,1.45453142242343
01/01/2013,1.26112455025278
01/04/2013,1.27007092533796
01/07/2013,1.15990828559696
01/10/2013,1.21944580509518
01/01/2014,1.31588043516755
01/04/2014,1.1391812153769
01/07/2014,1.05691046434453
01/10/2014,1.16027011046081
01/01/2015,1.14646630575718
01/04/2015,1.21480005415281
01/07/2015,0.569328965635318
01/10/2015,1.15460118700703
01/01/2016,1.21059086043166
