01/01/2011,4.65875672135405
01/04/2011,4.93634235569379
01/07/2011,2.95290659488028
01/10/2011,3.70746658945889
01/01/2012,4.51173510802916
01/04/2012,5.10470944779304
01/07/2012,3.45832386173167
01/10/2012,4.46294211760808
01/01/2013,5.1520300377708
01/04/2013,5.47331922313604
01/07/2013,3.6214757640154
01/10/2013,4.6415615494323
01/01/2014,5.79208167334653
01/04/2014,6.32835911574073
01/07/2014,3.96355808166716
01/10/2014,5.17610596126523
01/01/2015,5.55047481458716
01/04/2015,5.80358670226005
01/07/2015,4.48601582441155
