01/01/2014,20.9524960825719
01/04/2014,10.0484467643634
01/07/2014,1.92671742756873
01/10/2014,2.26611813024614
01/01/2015,2.56163214645576
01/04/2015,2.8698614700519
01/07/2015,2.49828267444337
01/10/2015,2.63632857653489
01/01/2016,2.91938395299239
