01/10/2012,0.435427069193364
01/01/2013,0.587978055952081
01/04/2013,0.62899380089389
01/07/2013,0.377478359818411
01/10/2013,0.393844772823343
01/01/2014,0.551838379843357
01/04/2014,0.548182691570813
01/07/2014,0.047463158972839
01/10/2014,0.207128523252987
01/01/2015,-0.067099953841421
01/04/2015,-0.852467904957325
01/07/2015,-1.08585339154693
01/10/2015,-0.864279594338288
01/01/2016,-1.32563867637769
