01/07/2013,-0.183826440016315
01/10/2013,-0.16273927167666
01/01/2014,-0.108354658830599
01/04/2014,-0.185470332279085
01/07/2014,-0.41503888314832
01/01/2015,0.835721892275269
01/07/2015,0.255268377167066
01/10/2015,0.196024761329805
01/01/2016,0.053949187745252
