01/10/2012,1.10933783755253
01/01/2013,1.30303641941471
01/04/2013,1.03789863903066
01/07/2013,0.464932714935554
01/10/2013,0.69327776047538
01/01/2014,0.888312997405792
01/04/2014,1.05981098694538
01/07/2014,0.428614443395861
01/10/2014,0.735541087080793
01/01/2015,0.904160757993297
01/07/2015,0.595822408169603
01/10/2015,0.780958994714825
01/01/2016,1.07638741873686
