01/10/2013,0.609442476023828
01/01/2014,0.895657656754748
01/04/2014,1.4047800296426
01/07/2014,0.447517343452286
01/10/2014,0.807170571142703
01/01/2015,1.33764979565785
01/04/2015,1.46372522650518
01/07/2015,0.294068406855991
01/10/2015,0.350225499633916
