01/01/2013,1.83459916781512
01/07/2013,0.427707737894882
01/10/2013,0.79631417408149
01/01/2014,1.16491360062977
01/04/2014,1.95741941888363
01/07/2014,0.394486266657282
01/10/2014,0.722004974903703
01/01/2015,1.02712265773849
01/04/2015,1.36436986202012
01/07/2015,0.567980797287462
01/10/2015,0.842478085698546
