01/04/2011,4.78175891403611
01/07/2011,2.67683928602618
01/10/2011,6.65348272068293
01/01/2012,7.57717321107944
01/04/2012,5.23151085348124
01/07/2012,2.85205132546366
01/10/2012,4.92278926966934
01/01/2013,6.529515759465
01/04/2013,4.74532700058901
01/07/2013,2.92787578378926
01/10/2013,4.20119328474097
01/01/2014,3.9354649898456
01/04/2014,3.87609963268686
01/07/2014,1.82037672178176
01/10/2014,3.18735396026945
01/01/2015,3.50803867574914
01/04/2015,5.12857310261794
01/07/2015,2.01936396401904
01/10/2015,2.83506188969455
01/01/2016,4.11574904360802
