01/04/2011,4.34338926846596
01/01/2012,2.65327038611766
01/04/2012,4.93857224905089
01/07/2012,1.42156055270338
01/10/2012,2.24639566138626
01/01/2013,3.26627277725517
01/07/2013,1.19896311832415
01/10/2013,1.993775996873
01/01/2014,2.94166575992954
