01/01/2011,2.16298805651275
01/04/2011,2.0019510333008
01/07/2011,1.29977059333875
01/10/2011,1.80110804929951
01/01/2012,2.22494819885281
01/04/2012,4.39814906247618
01/07/2012,1.04180663311697
01/10/2012,1.00388381314667
01/01/2013,1.65556042052747
01/04/2013,4.21334184307204
01/07/2013,0.954171347847862
01/10/2013,1.31681561072759
01/01/2014,1.53944713740646
01/04/2014,1.47046877381215
01/07/2014,1.16321582423399
01/01/2015,1.70626810866447
01/04/2015,7.24579667033341
01/07/2015,0.806173357548929
01/10/2015,1.133053447574
01/01/2016,0.931890432354112
