01/04/2011,2.01331426246877
01/07/2011,0.352425462703226
01/10/2011,0.813589008643621
01/01/2012,1.87240735689854
01/04/2012,2.80621875130524
01/07/2012,0.301799859152383
01/10/2012,1.71180452775448
01/01/2013,1.44243641283888
01/04/2013,2.56829791959775
01/07/2013,0.713170121033635
01/10/2013,1.16091525275286
01/01/2014,1.65494437694916
