01/10/2012,1.53985755710771
01/01/2013,2.21307664508008
01/04/2013,2.67365460138816
01/07/2013,0.930763127873278
01/10/2013,1.15932991103439
01/01/2014,1.81087236867631
01/04/2014,1.93955530809387
01/07/2014,0.195033335205149
01/10/2014,0.810760064025472
01/01/2015,1.22479301787602
01/04/2015,1.12837608771779
01/07/2015,0.554805664584642
01/10/2015,0.589130178640277
01/01/2016,0.863189637480365
