01/04/2013,-0.767764512654612
01/07/2013,-0.718300529221892
01/10/2013,-0.707938555743936
01/01/2014,-0.57155667459207
01/04/2014,-0.367536392585677
01/07/2014,-0.991172248706677
01/10/2014,-0.69289347137417
01/01/2015,-0.789258620120382
01/04/2015,-1.18033399346737
01/07/2015,-1.71025255606696
01/01/2016,-1.86686619261916
