01/10/2012,0.964599373877708
01/01/2013,0.597811751545744
01/04/2013,0.981954575716127
01/07/2013,0.741858152550857
01/10/2013,0.567599064812139
01/01/2014,0.813741390426027
01/04/2014,1.06414447066509
01/07/2014,0.628949951882916
01/10/2014,0.956389024786874
01/01/2015,1.00729835229349
01/04/2015,0.896971428767661
01/07/2015,0.649083229967913
01/10/2015,0.905568590928943
01/01/2016,0.91108930963496
