01/04/2011,1.0541716100502
01/07/2011,-1.60137792841723
01/10/2011,-0.958040884521559
01/01/2012,-0.030296150955949
01/04/2012,1.39470453542112
01/07/2012,1.39470453542112
01/10/2012,-0.03437359873493
01/01/2013,-0.03437359873493
01/04/2013,-0.03437359873493
01/07/2013,-0.03437359873493
01/10/2013,-0.03437359873493
01/01/2014,-0.03437359873493
01/04/2014,1.09747125787797
01/07/2014,-0.423514313881392
01/10/2014,-0.122171675904593
01/01/2015,0.439338813524397
01/04/2015,1.73058081172008
01/07/2015,-0.064504632716935
01/10/2015,0.344461825147198
01/01/2016,0.802722628872613
