01/01/2011,3.15606592400247
01/04/2011,3.54538874906057
01/07/2011,3.54538874906057
01/10/2011,1.93246910039657
01/01/2012,2.43868572032729
01/04/2012,3.72627636061901
01/07/2012,1.08659621759921
01/10/2012,1.09181663853408
01/01/2013,1.60558423797888
01/04/2013,4.321585820552
01/07/2013,4.321585820552
01/10/2013,0.905184943505625
01/01/2014,1.80078464421319
01/04/2014,2.59085757501483
01/07/2014,0.37408167394759
01/10/2014,1.15507528267122
01/01/2015,1.15507528267122
01/04/2015,1.15507528267122
01/07/2015,0.611408015132089
01/10/2015,1.224349492049
01/01/2016,0.876139003341482
