01/01/2011,2.80334439180525
01/04/2011,4.5338830794501
01/07/2011,1.23653781509547
01/10/2011,1.90867409548076
01/01/2012,3.32869364821705
01/04/2012,5.07110670733609
01/07/2012,0.98572670098094
01/10/2012,2.04488194580524
01/01/2013,3.77527880324572
01/04/2013,5.65626089956443
01/07/2013,1.2076201910478
01/10/2013,2.40706300583175
01/01/2014,3.99648146255328
01/04/2014,4.92448373418239
01/07/2014,1.2690741217188
01/10/2014,3.24956338055105
01/01/2015,3.92048993784086
01/04/2015,5.23122548785898
01/07/2015,1.34675673767266
