01/04/2011,1.0590993195337
01/07/2011,1.15468101055912
01/10/2011,1.40207299013928
01/01/2012,1.74809126539302
01/04/2012,1.79371565254171
01/07/2012,1.40482251594941
01/10/2012,1.48099268289962
01/01/2013,1.66175698760017
01/04/2013,6.82626796264237
01/07/2013,6.52654070667858
01/10/2013,5.61100429663907
01/01/2014,5.28028729247465
01/04/2014,6.2804974023667
01/07/2014,5.24516383326722
01/10/2014,5.77886355875798
