01/04/2011,2.35640828550804
01/07/2011,1.14978060585182
01/10/2011,1.21984947179043
01/01/2012,1.41309968883263
01/04/2012,1.70908833533086
01/07/2012,1.00450251294782
01/10/2012,1.18230466307751
01/01/2013,1.36007879683797
01/04/2013,1.79862344672597
01/07/2013,0.700104441957942
