01/01/2012,6.52404206944613
01/04/2012,6.31099461196233
01/07/2012,2.56592984650219
01/10/2012,4.95614300844098
01/01/2013,6.22407118792266
01/04/2013,7.98557701197796
01/07/2013,1.46866824120302
01/01/2014,6.84263729935628
01/04/2014,7.01162664343146
01/07/2014,2.34868598809984
01/10/2014,2.77492299234413
