01/07/2012,3.13322327173672
01/10/2012,3.51091453066673
01/01/2013,4.51809455689077
01/04/2013,5.81356962244245
01/07/2013,3.74737869930458
01/10/2013,4.05168074904592
01/01/2014,5.43967350697551
01/04/2014,6.2116419038747
01/07/2014,4.317581950358
01/10/2014,4.73535897969291
01/01/2015,5.56934777474945
01/04/2015,6.80716633103387
01/07/2015,4.90210849470897
01/10/2015,5.43475711098619
01/01/2016,6.54423115333566
