01/01/2011,4.47766979457308
01/07/2011,1.52744954308753
01/10/2011,3.40064718446112
01/01/2012,5.20284414480669
01/04/2012,7.20403482574289
01/07/2012,3.05748498194962
01/10/2012,4.98274237490234
01/01/2013,6.13105290040903
01/04/2013,5.34833785332042
01/07/2013,2.09325268702388
01/10/2013,3.50605910716838
01/01/2014,4.38065644947235
01/04/2014,4.5887784985909
01/07/2014,1.75785708027391
01/10/2014,2.48840752538096
01/01/2015,3.3948598240349
01/04/2015,5.14217099809237
01/07/2015,1.7574351351876
01/10/2015,2.42902869719561
