01/04/2011,5.2116226453242
01/07/2011,2.43125442046242
01/10/2011,1.81340535427315
01/01/2012,1.85619531121534
01/04/2012,2.63072576899116
01/07/2012,1.79950633070961
01/10/2012,1.77141561519383
01/01/2013,1.65964548791766
01/04/2013,2.07347817540749
01/07/2013,1.13400507805811
01/10/2013,1.4559999617663
01/01/2014,2.07429651739077
01/04/2014,2.66630181725129
01/07/2014,1.31506858875114
01/10/2014,1.50232148959713
01/01/2015,1.92880503121919
01/04/2015,2.29184899082044
01/07/2015,1.57249961369942
01/10/2015,1.63331038874914
01/01/2016,1.79534264481059
