01/04/2011,0.187764346762002
01/07/2011,-0.044324225015978
01/10/2011,0.499783536929832
01/01/2012,0.177830532527805
01/04/2012,0.407280569474692
01/07/2012,0.128648520913464
01/10/2012,0.39757112221062
01/01/2013,0.096392043407903
01/04/2013,0.533233300706033
01/07/2013,0.533233300706033
01/10/2013,0.40139761472478
01/01/2014,0.40139761472478
01/04/2014,0.40139761472478
01/07/2014,0.40139761472478
01/10/2014,0.298341674904842
01/01/2015,0.298341674904842
01/04/2015,0.298341674904842
01/07/2015,0.298341674904842
01/10/2015,0.260398351044052
01/01/2016,0.260398351044052
