01/01/2011,0.320975454885678
01/04/2011,0.562046825609213
01/10/2011,0.637903646821568
01/01/2012,0.628960514995527
01/07/2012,0.604758412136413
01/10/2012,0.50014855740828
01/01/2013,0.5018602221987
01/04/2013,0.567431227065303
01/07/2013,0.816255098649428
