01/10/2013,0.86648253279875
01/01/2014,1.10285116121276
01/04/2014,1.40072103389332
01/07/2014,0.55073449202351
01/10/2014,0.811080994044719
01/01/2015,1.12193507279889
01/04/2015,1.48913570838945
01/07/2015,0.385030558793428
01/10/2015,0.65967438357996
01/01/2016,0.880230298384541
