01/04/2012,30.8427786178049
01/07/2012,6.25760163425346
01/10/2012,12.0152531443208
01/01/2013,19.160397464968
01/04/2013,30.883408845694
01/07/2013,5.88039386786397
01/10/2013,12.1807736562743
01/01/2014,16.3942713152004
01/04/2014,24.0931647884789
01/07/2014,4.55448602488398
01/10/2014,10.1521723475772
01/01/2015,15.1130514033175
01/04/2015,21.2870877925572
01/07/2015,6.37788652480923
01/01/2016,16.9151446859035
