01/10/2011,0.921135064750141
01/01/2012,0.646307431239104
01/04/2012,0.090509463242398
01/07/2012,-0.29321998397356
01/10/2012,0.150697422169336
01/01/2013,0.12870804834933
01/04/2013,0.214353849134708
01/07/2013,0.151254013416485
01/10/2013,0.1789374457256
01/01/2014,0.246716630371866
01/04/2014,0.047415608130933
01/07/2014,-0.133134029594731
01/10/2014,-0.105555691144474
01/01/2015,0.128177848366362
01/04/2015,0.033364528015821
01/07/2015,-0.1214369219133
01/10/2015,-0.113299062121791
01/01/2016,-0.079431669186119
