01/04/2012,-0.323874439295538
01/07/2012,0.283833728235765
01/10/2012,0.356399851647973
01/01/2013,0.528333314261723
01/04/2013,0.658504453366093
01/07/2013,0.39661848175987
01/10/2013,0.374545720505526
01/01/2014,0.562892695503873
01/04/2014,0.801159454189451
01/07/2014,0.475626340717504
01/10/2014,0.318695628159388
01/01/2015,0.483147362291783
01/04/2015,0.553817329644727
01/07/2015,0.334178235896329
01/10/2015,0.243078930666243
01/01/2016,0.440988415574265
