01/01/2012,1.04821145030468
01/04/2012,1.26385288450074
01/07/2012,0.060964715780491
01/10/2012,0.471663631828315
01/01/2013,0.906564845904776
01/04/2013,0.831911667602579
01/07/2013,0.831911667602579
01/10/2013,0.206326636675147
01/01/2014,0.206326636675147
01/04/2014,0.948460656812821
01/07/2014,0.948460656812821
01/10/2014,0.948460656812821
01/01/2015,0.948460656812821
01/04/2015,0.948460656812821
01/07/2015,0.948460656812821
