01/07/2012,0.260546431124815
01/10/2012,0.415888752876452
01/01/2013,0.567565733090097
01/04/2013,0.046574927609397
01/07/2013,-0.39814658372492
01/10/2013,-0.400015621705815
01/01/2014,-0.399440674473409
01/04/2014,-0.589098154223203
01/07/2014,-0.890067682594723
01/10/2014,-0.948974987765956
01/01/2015,-0.760371747289569
