01/01/2011,3.96561548652432
01/04/2011,1.58707577593228
01/07/2011,0.497981725179328
01/10/2011,1.42280184081956
01/01/2012,1.92104825501055
01/04/2012,2.08329124846717
01/07/2012,0.944643996546853
01/10/2012,1.51692781671635
01/01/2013,2.20619769224789
01/04/2013,2.10786031059755
01/07/2013,0.611560528556569
01/10/2013,0.952955490172525
01/01/2014,1.51187984165325
01/04/2014,1.99100150504093
01/07/2014,0.544103923702485
01/10/2014,0.925243610414373
01/01/2015,1.31223144519251
