01/07/2011,0.979888985709494
01/10/2011,2.0523319695913
01/01/2012,3.26950597854265
01/04/2012,4.78596567686164
01/07/2012,1.16314704666363
01/10/2012,1.99131537790079
01/01/2013,2.85124384926142
01/04/2013,4.26808365609108
01/07/2013,0.95133950571063
01/10/2013,1.88811988209401
01/01/2014,2.92824773781725
01/04/2014,5.10142409515233
01/07/2014,1.50374889121368
01/10/2014,2.98790304913831
01/04/2015,8.00189554748806
01/07/2015,1.80457215450328
01/10/2015,2.85025755350136
01/01/2016,3.96252942159346
