01/01/2011,6.33253148177962
01/04/2011,6.10016678570214
01/07/2011,1.86351111950558
01/10/2011,4.21747945887683
01/01/2012,5.87558732218434
01/04/2012,7.01631796463599
01/07/2012,2.12178723642082
01/10/2012,3.87304888907569
01/01/2013,5.6666161383355
01/04/2013,6.34314954729684
01/07/2013,2.08579033212645
01/10/2013,3.46666492957812
01/01/2014,4.48573479079998
01/04/2014,5.34421538443785
01/07/2014,1.81666658624626
01/10/2014,2.6394262976831
01/01/2015,3.90035243342594
01/04/2015,4.5434978960966
01/07/2015,1.71230457503571
01/10/2015,2.70016815547928
01/01/2016,3.66203245011562
