01/04/2012,4.68320863659143
01/07/2012,1.81801016541527
01/10/2012,2.75196782963041
01/01/2013,3.96173602388784
01/04/2013,4.47867042231392
01/07/2013,1.78724435005757
01/10/2013,2.69692485174344
01/01/2014,3.64878895048556
01/04/2014,4.89078805726292
01/07/2014,1.96348597024442
01/10/2014,2.86301897139419
01/01/2015,3.55894610514479
