01/04/2011,1.20894992976432
01/07/2011,0.499682950413096
01/10/2011,0.493546123974402
01/01/2012,0.685652870863068
01/04/2012,0.85646246443116
01/07/2012,0.359343887677264
01/10/2012,0.562784782349729
01/01/2013,0.799479707148972
01/04/2013,0.696089551353985
01/07/2013,0.237454459388804
01/10/2013,0.368092863937866
01/01/2014,0.472273975960245
01/04/2014,0.567590386750582
01/07/2014,0.026899459490796
01/10/2014,0.136440710142605
01/01/2015,0.20768493648307
01/04/2015,1.01463929845195
01/07/2015,0.779587107124774
01/10/2015,1.0117830365066
01/01/2016,1.25147811178217
