01/01/2012,0.380566245870099
01/04/2012,0.300323627785775
01/07/2012,0.093425768974368
01/10/2012,0.140155180295254
01/01/2013,0.243103974352767
01/04/2013,0.200080850338266
01/10/2013,0.06876773627173
01/01/2014,0.081109093371604
01/04/2014,0.164345198899302
01/10/2014,0.072903456907012
01/01/2015,0.078060452722024
