01/10/2013,3.02105438139387
01/01/2014,4.40228795738363
01/04/2014,5.92227174204083
01/07/2014,1.70319203202972
01/10/2014,3.36735039859698
01/04/2015,6.82226486979929
01/07/2015,1.60865479413201
01/01/2016,3.83347847065391
