01/07/2011,1.40984658397128
01/10/2011,1.65760005030989
01/01/2012,1.98614211981789
01/04/2012,2.0169957847865
01/07/2012,1.40770139380958
01/10/2012,1.67660098212659
01/01/2013,1.81981404723661
01/04/2013,1.86831716597249
01/07/2013,1.09287586178257
01/10/2013,1.32974275928579
01/01/2014,1.57728825721504
01/04/2014,1.63105195044505
01/07/2014,1.03304287633701
01/10/2014,1.0869767158084
01/01/2016,1.84834038534807
