01/01/2013,0.803333838326992
01/04/2013,2.06052632811204
01/07/2013,0.064455236986803
01/10/2013,0.119234067899622
01/01/2014,0.95653117391766
01/04/2014,1.80360680171276
01/07/2014,0.140891461715234
01/10/2014,0.627514051841586
01/01/2015,1.05696712152804
