01/01/2012,0.702211364670213
01/04/2012,0.717041712490831
01/07/2012,0.694441747539953
01/10/2012,0.524908928729653
01/01/2013,0.55486934605805
01/04/2013,0.841037083318913
01/07/2013,0.355721412973108
01/10/2013,0.637675955015158
01/01/2014,0.78504116780045
01/04/2014,0.797842761063886
01/07/2014,0.393878001560172
01/10/2014,0.470363901108709
01/01/2015,0.327717533939538
01/07/2015,0.017044149694958
01/10/2015,0.037398005422606
01/01/2016,0.010664312684652
