01/01/2013,0.756669270504345
01/07/2013,0.353380251149855
01/10/2013,0.536646678728166
01/01/2014,0.678363746330395
01/04/2014,0.890721827810584
01/07/2014,0.359590043677132
01/10/2014,0.477042384953855
01/01/2015,0.722465353507705
01/04/2015,0.667481568299467
01/07/2015,0.255956337537584
