01/04/2011,0.545726415079562
01/04/2012,0.528645586685224
01/07/2012,0.213981898721137
01/10/2012,0.263357254625483
01/01/2013,0.373630572539859
01/04/2013,0.505561308722672
01/07/2013,0.156825581160785
01/10/2013,0.197184796169467
01/01/2014,0.265467990850464
01/04/2014,0.508672809021678
01/07/2014,0.186190823290103
01/10/2014,0.342043925067532
01/01/2015,0.419656038793734
01/04/2015,0.445591029320987
01/07/2015,-0.100004467303904
01/10/2015,0.429428107875343
01/01/2016,0.531542599450755
