01/01/2014,0.347062986320985
01/04/2014,0.781641634611457
01/07/2014,-0.048749504323083
01/10/2014,0.030526837695008
01/01/2015,0.138635725107978
01/10/2015,0.240484298227004
01/01/2016,0.377958893003496
