01/04/2012,0.09576440393678
01/07/2012,0.222532094473006
01/10/2012,-0.375380268491002
01/01/2013,-0.22795792693941
01/04/2013,-0.213478605917792
01/07/2013,-0.149990111226399
01/10/2013,-0.198504851560071
01/01/2014,-0.43508047438766
01/04/2014,-0.688685152241336
01/07/2014,-0.569166999462397
01/10/2014,-0.828681145297584
01/01/2015,-1.14126214604059
01/04/2015,-2.78708067841781
01/07/2015,-1.98024584884611
01/10/2015,-1.64804399288875
01/01/2016,-1.15730630860549
