01/10/2013,2.79604491417371
01/01/2014,4.19642671984624
01/04/2014,7.60245732619134
01/07/2014,3.19071549096104
01/10/2014,4.44576548838157
01/01/2015,5.16356324036447
01/04/2015,4.63938211048675
01/07/2015,1.81424994083948
01/10/2015,3.98695396473311
01/01/2016,5.01702808097956
