01/07/2011,0.365807337101073
01/10/2011,0.806850619973205
01/01/2012,1.54604219817694
01/04/2012,2.09354677724542
01/07/2012,0.732374482038028
01/10/2012,1.23871183998312
01/01/2013,1.83068329353991
01/04/2013,2.50413698385454
01/07/2013,0.583868171267041
01/10/2013,1.16845510724846
01/01/2014,1.78484120383567
01/04/2014,2.3208936836411
01/07/2014,0.679907339870166
01/10/2014,1.23778103480851
01/01/2015,1.79644942241963
