01/07/2012,1.29874692558852
01/10/2012,1.61666063460855
01/01/2013,2.16697859419875
01/04/2013,2.34838874255517
01/07/2013,1.46354318034738
01/10/2013,1.54518131200093
01/01/2014,1.54616735702568
01/04/2014,1.58798994845215
01/07/2014,1.98701438523962
01/10/2014,2.2285805691146
01/04/2015,3.60764751212912
