01/07/2011,2.11709640431559
01/10/2011,2.09847263302537
01/01/2012,4.06035186728852
01/04/2012,5.39190720234626
01/07/2012,1.48058988919382
01/10/2012,3.24823913699998
01/01/2013,4.27518834682835
01/04/2013,5.82004163595997
01/07/2013,2.02582350367723
01/10/2013,2.54115941895988
01/01/2014,4.61941686163206
01/04/2014,6.10036335142761
01/07/2014,1.5006310644013
01/10/2014,2.23948587143894
01/01/2015,4.08061727350544
01/07/2015,1.97151218551531
