01/01/2011,0.887634833641156
01/04/2011,1.16651717016343
01/07/2011,0.46340833931856
01/10/2011,0.82415886793912
01/01/2012,1.10009682441761
01/04/2012,1.25351356337363
01/07/2012,0.527382695432151
01/10/2012,0.685990369095554
01/01/2013,1.84586587401775
01/01/2014,2.0300990636508
01/04/2014,2.25263948447434
01/07/2014,1.60150785693237
