01/01/2011,2.0379708842986
01/04/2011,2.44862833522408
01/07/2011,1.74219374083438
01/01/2012,2.29093251405331
01/04/2012,2.69475132166505
01/10/2012,2.40036652613792
01/01/2014,3.1443279419502
01/07/2015,2.65562264827268
01/10/2015,2.99913910893006
01/01/2016,2.18860404619354
