01/01/2014,0.254686030508905
01/04/2014,0.319552691249982
01/07/2014,0.127280503141952
01/10/2014,0.37728644345402
01/01/2015,0.484280851686671
01/04/2015,0.604557349456978
01/07/2015,0.295016767136397
01/10/2015,0.432139321678902
01/01/2016,0.63346040198152
