01/01/2014,-0.382591596212682
01/04/2014,-0.358279319236373
01/07/2014,-0.413910819827378
01/10/2014,-0.208152993069098
01/01/2015,-0.107383314003118
01/04/2015,-0.025139528501802
01/07/2015,-0.275547366540548
01/10/2015,-0.183124881491413
01/01/2016,-0.071594640850341
