01/01/2013,1.6836740191808
01/04/2013,4.83319916783964
01/07/2013,1.87898079972323
01/10/2013,3.73407279094868
01/01/2014,4.27218381196106
01/04/2014,7.44471693851486
01/07/2014,1.22061606172654
01/10/2014,1.73067737053902
01/04/2015,5.95737195108172
01/10/2015,2.77078964480979
01/01/2016,3.53040972184165
