01/04/2013,1.5541048261254
01/10/2013,0.731854550179421
01/01/2014,1.70031345904101
01/04/2014,3.01554214899743
01/07/2014,0.85077791364587
01/10/2014,1.63442856863576
01/01/2015,2.64864311845746
01/04/2015,3.43203172241517
01/07/2015,0.987808870500075
01/10/2015,1.79317346078903
01/01/2016,2.79900122793644
