01/01/2014,0.270454887753592
01/04/2014,1.15174146323899
01/07/2014,0.330289846906179
01/10/2014,0.158389627920284
01/01/2015,0.231960629721428
01/04/2015,0.858137602432571
01/07/2015,0.275821369683177
01/10/2015,0.416829813388955
01/01/2016,0.512706368463931
