01/01/2011,7.32512091575797
01/04/2011,9.49483104171599
01/07/2011,2.24418825276292
01/10/2011,4.60854884812247
01/01/2012,5.13948118195434
01/04/2012,7.56011956502842
01/07/2012,2.05069999580296
01/10/2012,4.13990083055678
01/01/2013,7.19465149447203
01/04/2013,8.88890075290844
