01/01/2011,13598.3621192393
01/04/2011,-0.270573317188238
01/07/2011,-0.270573317188238
01/10/2011,-0.270573317188238
01/01/2012,-0.270573317188238
01/04/2012,0.155753849893801
01/07/2012,0.155753849893801
01/10/2012,0.155753849893801
01/01/2013,0.155753849893801
01/04/2013,0.600207695569024
01/07/2013,0.600207695569024
01/10/2013,0.600207695569024
01/01/2014,0.600207695569024
01/04/2014,1.07809881559965
01/07/2014,1.07809881559965
01/10/2014,1.07809881559965
01/01/2015,1.07809881559965
01/04/2015,1.64302549541505
01/07/2015,1.64302549541505
01/10/2015,1.64302549541505
01/01/2016,1.64302549541505
