01/10/2012,1.2508479769022
01/01/2013,1.40287453925956
01/04/2013,1.90179623304394
01/07/2013,1.08987329221896
01/01/2014,1.45355068310436
01/04/2014,1.93500551908283
01/07/2014,1.2055036496124
01/10/2014,1.40983606170674
01/01/2015,1.59735529400342
