01/01/2013,2.50608196788632
01/01/2014,2.19606404056394
01/04/2014,3.89241900949981
01/07/2014,1.45793299740656
01/10/2014,1.65569114964795
01/01/2015,2.05679852272989
01/04/2015,2.55814404720054
01/01/2016,2.21801083051782
