01/04/2014,0.399647564021463
01/07/2014,0.409735972681283
01/10/2014,-1.54072786857847
01/01/2015,-1.55301265937496
01/07/2015,-2.86577690187885
01/10/2015,-2.66755368417945
01/01/2016,-2.77056487964073
