01/07/2012,0.567773178580854
01/10/2012,0.783841921752172
01/01/2013,0.740581551313711
01/04/2013,0.694856561031556
01/07/2013,0.044328298725972
01/10/2013,-0.061142521071359
01/01/2014,0.023223300496176
01/04/2014,0.144765059664806
01/07/2014,-0.092080897334687
01/10/2014,-0.0233643935336
01/01/2015,-0.125456183637895
01/04/2015,-1.06315223295342
