01/01/2013,2.34939330384688
01/04/2013,2.90240820906967
01/07/2013,1.05385647782583
01/10/2013,1.63743839993921
01/01/2014,2.06779988802649
01/07/2014,0.710929303665615
01/10/2014,1.20413225045238
01/01/2015,1.4626525932564
01/04/2015,0.519808055099717
