01/07/2013,0.59433835813999
01/01/2014,0.368611759319722
01/04/2014,1.13818888558298
01/07/2014,0.448692195428526
01/10/2014,1.26568427495861
01/01/2015,1.80161543732169
01/04/2015,2.03637056743107
01/07/2015,0.624530678071613
01/10/2015,0.906786086291796
01/01/2016,2.12164288536478
