01/04/2012,1.08494057889595
01/07/2012,0.297694331266773
01/10/2012,0.488340478172253
01/01/2013,0.572182331176354
01/07/2013,0.032188940167209
01/10/2013,0.290153555636495
01/01/2014,0.280106194369519
01/04/2014,0.882284826169419
01/07/2014,0.343784909963169
01/10/2015,0.398705762983313
