01/04/2011,1.53167541321392
01/07/2011,0.634007461071686
01/10/2011,0.898602161071802
01/01/2012,1.0835248354484
01/04/2012,1.2022495355227
01/07/2012,0.615377852920841
01/10/2012,0.855726288080045
01/01/2013,1.08485902246406
01/04/2013,1.39746840148839
01/07/2013,0.572295371364268
01/10/2013,0.742277538820144
01/01/2014,1.20887378522519
01/04/2014,1.44496294320912
01/07/2014,0.598189573810818
01/10/2014,0.908196264905589
01/01/2015,1.16430781878151
01/04/2015,1.48069314527171
01/07/2015,0.670509490728038
01/10/2015,1.03092036300347
01/01/2016,1.21756587412525
