01/01/2011,-0.198960184615116
01/04/2011,-0.455964761839891
01/07/2011,-0.234599030120624
01/10/2011,-0.309253720276427
01/01/2012,-0.149026303659114
01/04/2012,-0.107530535550773
01/07/2012,0.023138624043074
01/10/2012,0.047358745292385
01/01/2013,0.011681443020399
01/04/2013,0.230553319360393
01/07/2013,0.276482167233565
01/10/2013,0.37578240126474
01/01/2014,0.383158614419496
01/04/2014,0.310659710811266
01/07/2014,0.157184340531741
01/10/2014,0.225912828635755
01/01/2015,0.102637714737506
01/04/2015,0.397423821929877
01/07/2015,0.112417239744266
01/10/2015,0.069518258924822
01/01/2016,0.019067565498433
