01/01/2011,6.62128569365066
01/04/2011,8.11344089276578
01/07/2011,3.9869039809279
01/10/2011,4.99614539213262
01/01/2012,6.49361004472276
01/04/2012,9.87294272483713
01/07/2012,3.22824023258654
01/10/2012,4.51442447708854
01/01/2013,5.30607766413134
01/04/2013,7.16827065579526
01/07/2013,2.29779457499082
01/10/2013,3.80005661678232
01/01/2014,4.75747383486171
01/04/2014,6.70305822901478
01/07/2014,2.36997299245517
01/10/2014,3.81007649389484
01/01/2015,4.73909985585744
01/04/2015,5.49354347897568
01/07/2015,2.86750259709341
01/01/2016,4.06483139610297
