01/01/2011,5.05516246997527
01/04/2011,4.44619274807137
01/07/2011,2.10183177118852
01/10/2011,2.77776500478274
01/01/2012,3.58692722324464
01/04/2012,5.51412511647722
01/07/2012,1.77505612282377
01/10/2012,3.01182885929122
01/01/2013,3.83182206239694
01/04/2013,6.62845996019798
01/07/2013,1.9542406303067
01/10/2013,2.99901898981418
01/01/2014,3.63535031386293
01/04/2014,5.20588981616428
01/07/2014,2.00029196378488
01/10/2014,2.61124280016041
01/01/2015,3.54890126860784
01/07/2015,1.49262912671406
01/10/2015,1.80204489378533
01/01/2016,2.54090620222494
