01/10/2012,2.11892282456939
01/01/2013,2.93697098797083
01/04/2013,4.61769989307453
01/07/2013,1.02785614340574
01/10/2013,2.12847911430154
01/01/2014,3.30458280838638
01/04/2014,5.84530831982734
01/07/2014,1.22317945814298
01/10/2014,2.56605789660993
01/01/2015,2.42910355037888
