01/01/2011,0.872467964632535
01/04/2011,1.71058912470451
01/10/2011,1.12505754056361
01/01/2012,1.18947966057609
01/04/2012,1.24606363945853
01/10/2012,1.04273536313587
01/01/2013,1.23655641688588
01/04/2013,1.59711854482608
01/07/2013,1.09131004175677
01/10/2013,1.16531160555652
01/01/2014,0.885641335176449
01/04/2014,0.994248316186094
01/07/2014,0.668685187557569
01/10/2014,0.796737208385811
01/01/2015,0.939823927521329
01/01/2016,1.08361655600961
