01/04/2011,2.43932157335392
01/07/2011,0.642826406584407
01/10/2011,0.937585936931121
01/01/2012,2.13883371611558
01/04/2012,3.14594880655667
01/07/2012,0.083773841282718
01/10/2012,0.839500402958076
01/01/2013,1.30611416659278
01/04/2013,2.04768192085919
01/07/2013,0.379829986287503
01/10/2013,0.768329960352314
01/07/2014,0.242157712882717
