01/04/2011,1.26626278774874
01/07/2011,0.336509219249301
01/10/2011,0.711504427730512
01/01/2012,1.18355217800437
01/04/2012,3.42622350469379
01/07/2012,0.439287198538489
01/10/2012,0.844444410188271
01/01/2013,1.11908280338899
01/04/2013,1.56505915099392
01/07/2013,0.423274871026179
01/10/2013,0.798937749135255
01/01/2014,1.59811033159064
