01/04/2011,1.23190184831695
01/07/2011,0.412625402843983
01/10/2011,1.51995388537814
01/01/2012,2.36314538813317
01/04/2012,2.93232846417948
01/07/2012,1.43255358240786
01/10/2012,2.59099714910838
01/01/2013,3.76838142036611
01/04/2013,0.167084146526232
01/07/2013,1.34260277029342
01/10/2013,2.60153241244693
01/01/2014,3.27384340559091
01/04/2014,3.35587989501622
01/07/2014,0.838866365262384
01/10/2014,1.89333995192869
01/01/2015,3.07111043753621
01/04/2015,3.26817502593849
01/07/2015,1.22473668068766
