01/10/2012,1.39097391124183
01/01/2013,2.06186943292073
01/04/2013,3.05859570853587
01/07/2013,0.970363270925241
01/10/2013,2.30198255506152
01/01/2014,3.39536067012441
01/04/2014,3.61645720310845
01/07/2014,1.01627210939278
01/10/2014,1.61911459742103
