01/04/2013,3.25554202653298
01/07/2013,1.98676939858294
01/10/2013,2.41472544191014
01/01/2014,3.01323210054186
01/04/2014,3.19797782280456
01/07/2014,2.14093753364908
01/10/2014,2.51843207975513
01/01/2015,3.2521131874183
01/04/2015,3.24090700425249
01/07/2015,2.40713775942857
01/10/2015,2.88727457742925
01/01/2016,2.90882387326172
