01/10/2011,3.53792232462898
01/01/2012,3.17396466169412
01/04/2012,3.39920612610586
01/07/2012,1.69617730394739
01/10/2012,2.41978039094696
01/01/2013,3.2996919263865
01/07/2013,2.16689193226556
01/07/2014,2.1134118815468
