01/04/2011,2.07438026544245
01/01/2012,1.12206042250607
01/04/2012,2.08797026143197
01/07/2012,0.975482434860597
01/10/2012,1.15032310493664
01/01/2013,1.40638239162917
01/04/2013,1.83287351343543
01/07/2013,0.64579488131771
01/10/2013,0.942187474409837
01/01/2014,1.27558302671075
01/04/2014,1.51718713434646
01/07/2014,0.432460974161869
01/10/2014,-0.092865941315771
