01/04/2011,3.31252010394532
01/07/2011,1.5444208995113
01/10/2011,2.03711323195884
01/01/2012,2.27744817064679
01/04/2012,2.89521624998304
01/07/2012,1.37898409834289
01/10/2012,1.72613899628594
01/01/2013,2.00942601883294
01/04/2013,2.68395431379295
01/07/2013,1.34784325783339
01/10/2013,1.70115669561239
01/01/2014,2.16521046841008
01/04/2014,2.73808418374749
01/07/2014,1.21848296774599
01/10/2014,1.63142332119663
