01/04/2011,0.971519046715588
01/07/2011,0.922205668217831
01/10/2011,1.16335865213483
01/01/2012,1.42522710183482
01/04/2012,1.68422362254105
01/07/2012,1.33854159385539
01/10/2012,1.6698948317383
01/01/2013,2.06605446975451
01/10/2013,2.39167386940113
01/01/2014,2.97110092002698
01/04/2014,3.60826978325039
