01/04/2014,138.550924372706
01/07/2014,138.550924372706
01/10/2014,138.550924372706
01/01/2015,138.550924372706
01/04/2015,0.795391385018835
01/07/2015,0.795391385018835
01/10/2015,0.795391385018835
01/01/2016,0.795391385018835
