01/10/2012,0.87711694714984
01/01/2013,1.04242281671706
01/04/2013,1.67952090583971
01/07/2013,0.505533209541002
01/10/2013,0.964051893866365
01/01/2014,1.23062401850981
01/04/2014,2.356785434122
01/07/2014,0.51280417601888
01/10/2014,0.992515090591235
01/01/2015,1.46204244781149
