01/04/2012,0.229086437571163
01/07/2012,0.155777514748586
01/10/2012,0.617188445861824
01/01/2013,1.09682225122268
01/04/2013,1.49620563158541
01/10/2013,4.92154223917906
01/01/2014,4.98709193534633
01/04/2014,4.98317522990947
01/07/2014,2.74682213107848
01/01/2015,2.56293404679117
01/04/2015,2.4751420686659
01/07/2015,2.4860871161188
