01/07/2012,1.44110833241892
01/10/2012,3.20762341261454
01/01/2013,4.22283878525202
01/04/2013,4.96356404685493
01/07/2013,0.913713623275559
01/10/2013,2.26576242945752
01/01/2014,2.40324218002227
01/04/2014,3.21067780229336
01/07/2014,0.913763315766678
01/10/2014,1.63668673587117
01/01/2015,2.21468163923628
