01/07/2012,1.55348950455976
01/10/2012,2.63547889399586
01/01/2013,1.83761128247565
01/04/2013,1.98721287895983
01/07/2013,0.380881704948264
01/10/2013,0.711631918844421
01/01/2014,1.01317227225466
01/04/2014,1.32847179986983
01/10/2014,0.574296337475266
01/04/2015,1.50141876483325
