01/01/2012,2.2600083791538
01/07/2012,0.878037078434068
01/10/2012,1.71616506666613
01/01/2013,2.74179496839452
01/04/2013,3.12523175601537
01/07/2013,0.879533995158158
01/10/2013,1.63474656553233
01/01/2014,2.70368747413274
01/04/2014,2.09479367210357
01/07/2014,0.502730628101511
01/10/2014,1.19498330389872
01/01/2015,1.30700116902101
01/04/2015,1.33667211615032
01/07/2015,0.022135510753574
