01/10/2011,0.618368033860201
01/01/2012,0.85906970032976
01/04/2012,1.98577716385136
01/07/2012,0.552883757976325
01/10/2012,0.587488948776954
01/01/2013,0.915737869260913
01/04/2013,1.08270142565003
01/07/2013,0.345196742054635
01/10/2013,0.47908538794042
01/01/2014,0.627180466163072
01/04/2014,1.05732802474933
01/07/2014,0.459395907914389
01/10/2014,0.875708228353003
