01/07/2013,0.495464761735437
01/10/2013,0.886572781866059
01/01/2014,1.43625847543716
01/04/2014,2.11339392581613
01/07/2014,0.707271841351511
01/10/2014,1.64770805588653
01/01/2015,2.36187737824484
01/04/2015,2.2713018698307
01/07/2015,0.452144830863916
01/01/2016,1.84930046666745
