01/01/2011,2.67319524908509
01/04/2011,6.39397714622568
01/07/2011,1.83432061641262
01/10/2011,3.62328337449249
01/01/2012,4.69808119741926
01/04/2012,5.65446219447886
01/07/2012,0.661416431133599
01/10/2012,1.46360812823748
01/01/2013,2.43848435252311
01/04/2013,3.74711493168062
01/07/2013,1.07012270806807
01/01/2014,2.55851883507713
01/10/2014,1.38394168630702
01/01/2016,2.99248171042177
