01/04/2011,4.40238485346661
01/10/2011,2.64584604078629
01/01/2012,3.15666786529479
01/07/2012,2.19632479212193
01/10/2012,2.29303301177263
01/01/2013,3.3367414820828
01/04/2013,3.42139778019505
01/07/2013,1.85281987071891
01/10/2013,2.28209566256794
01/01/2014,3.68981109883222
01/04/2014,3.81376982476683
01/07/2014,1.94185750542875
01/10/2014,2.04637565262808
01/01/2015,3.19938522893077
