01/01/2011,2.16901316056316
01/04/2011,3.57078176754117
01/07/2011,1.95549356371014
01/10/2011,2.22358531274035
01/01/2012,1.94466754741185
01/04/2012,2.63767776845859
01/07/2012,2.11432609705631
01/10/2012,3.55375621534914
01/01/2013,5.46363496166257
01/04/2013,6.26820303507153
01/07/2013,5.32132634011663
01/01/2014,6.52609396311174
01/07/2014,10.484416476418
