01/01/2013,10.5357729314574
01/04/2013,13.154598112146
01/07/2013,3.00078730414609
01/10/2013,5.03957063565205
01/01/2014,7.07555891266317
01/04/2014,8.85142254268557
01/07/2014,1.50012023369878
01/10/2014,2.45238274940212
01/01/2015,3.69373602876061
01/04/2015,3.64609415092399
01/07/2015,1.08009051594451
01/10/2015,1.62223163158857
01/01/2016,3.0068011038249
