01/01/2013,1.82758090209239
01/04/2013,2.33657764538143
01/07/2013,2.33657764538143
01/10/2013,2.33657764538143
01/01/2014,2.33657764538143
01/04/2014,2.33657764538143
01/07/2014,2.33657764538143
01/10/2014,0.97727296931875
01/01/2015,1.29466862294301
01/04/2015,1.32934886055988
01/07/2015,0.417700399071728
01/10/2015,0.852671045191479
01/01/2016,0.61050120241583
