01/01/2013,0.290134354268399
01/04/2013,0.756159539817706
01/07/2013,0.756159539817706
01/10/2013,0.756159539817706
01/01/2014,0.756159539817706
01/04/2014,1.20440723955853
01/07/2014,1.20440723955853
01/10/2014,1.20440723955853
01/01/2015,1.20440723955853
01/04/2015,1.4399977269594
01/07/2015,1.4399977269594
01/10/2015,1.4399977269594
01/01/2016,1.4399977269594
