01/01/2011,3.11871347308082
01/04/2011,4.88138818630914
01/07/2011,2.72745833117147
01/10/2011,3.50959548059704
01/01/2012,3.69404850438454
01/04/2012,3.98083089256023
01/07/2012,2.17745863188312
01/10/2012,2.5561235003708
01/01/2013,3.89527169338267
01/04/2013,3.66701125175681
01/07/2013,1.93836621376218
01/10/2013,2.74039571085819
01/01/2014,3.37799623317806
01/04/2014,3.58711161525581
01/07/2014,2.74866942107406
01/10/2014,2.79461923380171
01/01/2015,3.06049664466722
01/04/2015,3.61104214298329
01/07/2015,1.91526539113568
01/10/2015,2.58036117959131
01/01/2016,2.4908652389892
