01/04/2011,8.30632341084319
01/07/2011,1.9389933443004
01/10/2011,4.06048734369622
01/01/2012,4.94930435745219
01/04/2012,9.02416792728556
01/07/2012,2.07170746064088
01/10/2012,2.89223818766099
01/01/2013,3.66859723657403
01/04/2013,6.04249478458937
