01/04/2012,1.44536346390638
01/07/2012,0.411857253360619
01/10/2012,0.789295889203547
01/01/2013,1.32923611621687
01/04/2013,2.00655269720833
01/07/2013,0.477834947913408
01/10/2013,0.803631533294826
01/01/2014,1.30061061372772
01/04/2014,1.95753262997378
01/07/2014,0.556914589492823
01/10/2014,1.00593031614084
01/01/2015,1.56908125716208
01/04/2015,2.25389710719511
01/07/2015,0.890490769890033
01/10/2015,1.15557430855385
01/01/2016,1.71702268279106
