01/04/2011,3.10217194221616
01/07/2011,2.14411847994953
01/10/2011,2.40279873110975
01/01/2012,3.04205226029827
01/04/2012,2.43786919788963
01/07/2012,2.43786919788963
01/10/2012,2.43786919788963
01/01/2013,2.43786919788963
01/04/2013,2.62517826652011
01/07/2013,2.62517826652011
01/10/2013,2.62517826652011
01/01/2014,2.62517826652011
01/04/2014,2.57085256941279
01/07/2014,2.57085256941279
01/10/2014,2.57085256941279
01/01/2015,2.57085256941279
01/04/2015,2.57085256941279
01/07/2015,2.57085256941279
01/10/2015,2.41850023320606
01/01/2016,3.08824333891655
