01/10/2012,3.70184159554365
01/01/2013,3.58601338347912
01/04/2013,7.00548481921108
01/07/2013,0.854534395659879
01/10/2013,1.5603412500846
01/01/2014,1.99387612279385
01/04/2014,3.27417425159764
01/07/2014,0.948765532980415
01/10/2014,1.08989754948782
