01/04/2011,5.37595642425458
01/07/2011,1.76438308403373
01/10/2011,3.53643009204066
01/01/2012,4.83181425535076
01/04/2012,4.1769962734959
01/07/2012,1.86415541412178
01/10/2012,3.67763579857721
01/01/2013,5.48349059101863
01/04/2013,5.20322680652079
01/07/2013,2.1400618427733
01/10/2013,4.06123829101139
01/01/2014,4.92321938942115
01/10/2014,4.48997993545814
01/01/2015,5.7826502335637
01/04/2015,5.29119972851604
01/07/2015,2.12912125858726
01/10/2015,4.59184283479554
01/01/2016,5.46180462257862
