01/07/2011,2.22693001475457
01/10/2011,4.0259487109613
01/01/2012,5.68035847655191
01/04/2012,10.2845711033293
01/07/2012,2.1645148779353
01/10/2012,0.612452632180744
01/01/2013,4.19242282096699
01/04/2013,4.81742744915723
01/07/2013,1.33021679651576
01/10/2013,2.16002489471769
01/01/2014,3.58160090611857
01/04/2014,4.12141831430039
01/07/2014,0.967620772795855
01/10/2014,1.90820906219169
01/01/2015,3.07377618646524
01/07/2015,0.894709669941471
