01/04/2011,4.7177516547521
01/01/2012,0.960291729843191
01/04/2012,1.53462331090272
01/07/2012,0.398936897605372
01/10/2012,2.41215791914575
01/01/2013,1.07517680314939
01/04/2013,3.97519277138002
01/07/2013,0.272463059417909
01/01/2014,1.09548002677914
01/07/2014,0.470955054578604
01/01/2015,1.56218443736342
