01/01/2012,2.86846621405022
01/04/2012,4.83562024746434
01/07/2012,1.67187451713949
01/10/2012,3.20266642003985
01/01/2013,4.17807259947364
01/04/2013,4.92013183441277
01/07/2013,1.81947566843702
01/10/2013,3.34407002047637
01/01/2014,3.82804435306114
01/04/2014,5.89368495823834
01/07/2014,1.61798793052614
01/10/2014,3.52940419528902
01/01/2016,25.5484078780054
