01/01/2013,1.88064868777674
01/10/2013,2.4655543882499
01/01/2014,2.74569322437583
01/01/2015,3.46335685088361
01/04/2015,2.91026780805571
01/07/2015,1.29767483547414
01/10/2015,1.26834287235024
01/01/2016,1.54088350691901
