01/01/2013,3.06021452569122
01/01/2014,2.61946042726363
01/07/2014,1.20961242792308
01/10/2014,1.30903714582203
01/01/2015,1.81362876525924
01/04/2015,1.65049631625988
01/07/2015,1.01390198015311
01/10/2015,0.806228891157442
01/01/2016,0.973523255199433
