01/07/2011,0.837668563548973
01/10/2011,1.04537256763439
01/01/2012,1.12311266084189
01/04/2012,1.68292740743926
01/07/2012,1.4022867705218
01/10/2012,0.574359021346565
01/01/2013,1.10131301093932
01/04/2013,1.82630655635945
01/07/2013,0.535887479734032
01/10/2013,0.621943229991056
01/01/2014,0.865386308034665
01/04/2014,1.63341291916486
