01/07/2011,1.82086275916919
01/10/2011,3.7451645472891
01/01/2012,4.76677597361115
01/04/2012,5.02766429093802
01/07/2012,1.70119117735997
01/10/2012,2.7534190343898
01/01/2013,3.41671198363328
01/04/2013,3.28958152705583
01/07/2013,0.918584399625628
01/10/2013,1.84293428689583
01/01/2014,2.92229784647555
01/04/2014,3.71504651634074
01/07/2014,1.12943921473455
01/10/2014,2.06116010146944
