01/07/2011,0.788523314132
01/10/2011,0.788523314132
01/01/2012,0.788523314132
01/04/2012,0.788523314132
01/07/2012,0.788523314132
01/10/2012,0.788523314132
01/01/2013,1.7436880357348
01/04/2013,1.74671896491529
01/07/2013,0.530604473743642
01/10/2013,1.00571287180562
01/01/2014,1.18500436721339
01/04/2014,1.00959554135059
01/07/2014,0.509232156644098
01/10/2014,1.18953158852756
01/01/2015,1.74382098233031
01/10/2015,1.46913622615487
01/01/2016,2.06873204522913
