01/10/2013,1.07476352509417
01/01/2014,1.74133884113755
01/04/2014,2.89292612135952
01/07/2014,0.48137887246308
01/10/2014,0.974357414525258
01/01/2015,1.39592342154533
01/04/2015,1.87121739051915
01/07/2015,0.412823884206915
01/10/2015,0.829033440802535
01/01/2016,1.16281687490887
