01/01/2013,4.27044328820383
01/04/2013,8.37288143617472
01/07/2013,2.73079661711886
01/10/2013,3.30138404157734
01/01/2014,2.42190691322875
01/04/2014,5.12777608046499
01/07/2014,2.55283626391927
01/10/2014,1.95998167779994
01/01/2015,2.57153548418766
01/04/2015,3.41566936738894
01/07/2015,1.50121359111019
01/10/2015,3.09808161717385
01/01/2016,4.52624601702846
