01/10/2012,1.04769020344973
01/01/2013,1.33054949374078
01/04/2013,1.87304174994994
01/07/2013,1.86621907301286
01/10/2013,1.06336628701928
01/01/2014,1.61177005330754
01/04/2014,2.09362683996253
01/07/2014,0.510260526678213
01/01/2015,1.13300983559225
