01/04/2013,-0.327775461635538
01/07/2013,0.155275744166723
01/10/2013,0.17829196746973
01/01/2014,0.322896743274234
01/04/2014,0.442269930512015
01/07/2014,-0.040788034417479
01/10/2014,-0.181731489251474
01/01/2015,-0.125507943046292
01/04/2015,-0.574504202582039
01/07/2015,-0.694985266802399
01/10/2015,-0.393290648069558
01/01/2016,-0.488242741239813
