01/01/2012,-0.004656081754156
01/04/2012,-0.080342372661859
01/07/2012,0.029363386529426
01/10/2012,-0.01182008073496
01/01/2013,-0.108806645056381
01/04/2013,-0.087027729590259
01/07/2013,-0.376405875997498
01/10/2013,-0.185729100208826
01/01/2014,0.005862417076043
01/04/2014,0.06575392290534
01/07/2014,-0.425032332364618
01/10/2014,-0.382045889535416
01/01/2015,0.225646486531694
01/04/2015,0.414014481910964
01/07/2015,0.058150643240963
01/10/2015,0.316185961734762
01/01/2016,0.363081053298562
