01/10/2012,2.00394788662576
01/01/2013,2.38759344001878
01/04/2013,2.77042593696414
01/07/2013,0.962271820698281
01/10/2013,1.03212441148934
01/01/2014,1.059244990294
01/04/2014,1.08233710083539
01/07/2014,0.443275965875039
01/10/2014,0.532586699088328
01/01/2015,0.71078215255746
01/04/2015,1.13102838866954
01/07/2015,0.571980758173299
01/10/2015,0.622643811484735
