01/04/2011,1.70644022825309
01/07/2011,1.72713464281767
01/10/2011,0.620047853077294
01/01/2012,1.25698074468641
01/04/2012,1.9785398850947
01/07/2012,1.28418039221415
01/10/2012,1.21544806976634
01/01/2013,1.36670469141892
01/04/2013,1.47717567937927
01/07/2013,1.03951542060195
01/10/2013,0.983930276811212
01/01/2014,1.20053831235588
01/04/2014,1.60830303499581
01/07/2014,1.16401757009162
01/10/2014,1.65441333294327
01/04/2015,1.65047903132929
01/10/2015,2.13750321599525
01/01/2016,2.87606902149809
