01/01/2011,1.11447510324597
01/04/2011,1.77350585966576
01/07/2011,0.593586339839348
01/10/2011,1.21461884435403
01/01/2012,1.47955481659674
01/04/2012,1.84162774663849
01/07/2012,0.574109356953606
01/10/2012,0.803770550379944
01/01/2013,1.16044315154995
01/04/2013,1.46666992802917
01/07/2013,0.458198689122439
01/10/2013,0.621719895530142
01/01/2014,0.787875273234764
01/04/2014,1.10047189785421
01/07/2014,0.189963299042977
01/10/2014,0.556717569714723
01/04/2015,1.37379944800813
01/07/2015,0.32684333729825
01/10/2015,0.491709503908757
01/01/2016,0.643712822264143
