01/07/2012,0.225842204938785
01/10/2012,0.276953201130799
01/01/2013,0.31541653901671
01/04/2013,0.241013268458855
01/07/2013,0.029718272864656
01/10/2013,0.105343936236265
01/01/2014,0.104167865496482
01/04/2014,0.047755688167557
01/07/2014,-0.031664332824195
01/10/2014,0.101132180746918
01/10/2015,0.337185258121337
01/01/2016,0.489595026714776
