01/01/2013,2.82351757205017
01/04/2013,3.59076770582333
01/07/2013,1.07807602416834
01/10/2013,2.33396361393494
01/01/2014,3.88816646963722
01/04/2014,4.04688424677456
01/07/2014,0.992384371984955
01/10/2014,2.70794669153088
01/04/2015,3.60566360017115
01/07/2015,1.55652433680648
