01/01/2013,1.10527405754118
01/04/2013,1.87483035103982
01/07/2013,0.48914171094835
01/10/2013,1.04276774908522
01/01/2014,1.47085902050764
01/04/2014,1.92454884441304
01/07/2014,0.616551399987236
01/10/2014,1.02545794163862
01/01/2015,1.26209796540027
