01/01/2011,2.28787147477176
01/04/2011,2.71188792694374
01/07/2011,1.19058955673208
01/10/2011,1.78326292243185
01/01/2012,2.99854296436933
01/04/2012,3.38560007790963
01/07/2012,1.19527908815244
01/10/2012,1.5614218238386
01/01/2013,2.7823855133825
01/04/2013,3.42770489559307
01/07/2013,1.3171010705243
01/10/2013,1.95886886207512
01/01/2014,2.91546047055286
01/04/2014,2.91546047055286
01/07/2014,1.78361661189524
01/10/2014,1.78361661189524
01/01/2015,3.70512674079677
01/04/2015,3.70512674079677
01/07/2015,3.70512674079677
01/10/2015,3.70512674079677
01/01/2016,3.70512674079677
