01/01/2012,1.30478277546344
01/04/2012,1.98562716416776
01/07/2012,0.594926184481807
01/10/2012,0.826691143980232
01/01/2013,1.36220188089797
01/04/2013,2.34818759395698
01/07/2013,0.692874233291431
01/10/2013,1.41958711832976
01/01/2014,2.04793120023294
01/04/2014,3.38040768373329
01/07/2014,1.11252566674237
01/10/2014,2.18894634824478
01/01/2015,3.00344390291065
01/04/2015,4.06479620695912
01/10/2015,1.85984089726418
01/01/2016,2.74614144703867
