01/01/2012,4.30641717485647
01/07/2012,2.07239958702134
01/01/2013,4.48977271926966
01/07/2013,2.01779829073563
01/07/2014,1.22628379907113
01/10/2014,3.21855527168568
01/01/2015,4.4614832650951
01/01/2016,4.08963293562067
