01/07/2012,0.622875564143333
01/10/2012,0.622875564143333
01/01/2013,0.771041716337602
01/04/2013,0.807121920259292
01/07/2013,0.592350690842109
01/10/2013,0.592350690842109
01/01/2014,0.592350690842109
01/04/2014,0.592350690842109
01/07/2014,0.592350690842109
01/10/2014,-0.159825411488145
01/01/2015,-0.159825411488145
01/04/2015,-0.159825411488145
01/07/2015,-0.159825411488145
01/10/2015,-0.027422027979969
01/01/2016,-0.027422027979969
