01/01/2011,5.08814488731648
01/04/2011,3.76279878776836
01/07/2011,1.98843965036597
01/10/2011,3.44226883179337
01/01/2012,3.48204528612678
01/04/2012,3.42344948490776
01/07/2012,1.96692373993527
01/10/2012,2.68881326857787
01/01/2013,3.02344710300393
01/04/2013,3.26622190052677
01/07/2013,1.95240440080156
01/10/2013,2.5847033872052
01/01/2014,2.52492015696637
01/04/2014,2.44537999388648
01/07/2014,1.32002697580044
01/10/2014,2.56685814355772
01/01/2015,2.74016047438781
01/04/2015,2.62462789305948
01/07/2015,1.77830121165456
