01/01/2013,7.12852986575262
01/04/2013,6.46160996363733
01/07/2013,1.49843720831703
01/10/2013,4.50481687566239
01/01/2014,8.90350115482437
01/04/2014,5.74900521715285
01/07/2014,2.4904276153782
01/10/2014,6.05618821333973
01/01/2015,11.0438975288835
