01/01/2011,3.8989686884114
01/04/2011,5.53926361636568
01/07/2011,2.49248308627598
01/10/2011,3.43656379358156
01/01/2012,4.47387383390889
01/04/2012,4.92093511418009
01/07/2012,2.49532872734766
01/10/2012,3.4688219044461
01/01/2013,3.9714570257861
01/04/2013,5.51173019356914
01/07/2013,6.97756708709117
01/10/2013,11.0774751943243
