01/01/2011,2.41148366053133
01/04/2011,2.83910834560396
01/07/2011,0.956546238481225
01/10/2011,1.58744566199488
01/01/2012,2.19641863282703
01/04/2012,2.7821550292895
01/07/2012,0.8469283134095
01/10/2012,1.82577024478469
01/01/2013,2.89305008793987
01/04/2013,3.48945427362666
01/07/2013,0.842612567751966
01/10/2013,1.64616432976319
01/01/2014,2.59926413872491
01/04/2014,3.75285191886012
01/07/2014,0.911272198726647
01/10/2014,1.85586364922598
01/01/2015,2.73314271533846
01/04/2015,3.25448353203307
01/07/2015,0.999140869430088
