01/10/2011,2.56477821416258
01/01/2012,3.82547606415936
01/04/2012,12.5395313289907
01/07/2012,1.94716969802946
01/10/2012,3.53819839258865
01/01/2013,3.82751409632986
01/07/2013,0.366298373683838
01/10/2013,0.650439156244428
01/01/2014,0.972986101317298
01/07/2014,0.791948410487442
01/10/2014,0.842525514691241
01/04/2015,2.04147598160216
01/10/2015,0.844893777042497
